{
   "events": [
      {
         "id": "4d8acc68-5225-443b-802e-683bdcfda41a",
         "timestamp": "2023-01-23T17:04:24.775742+11:00",
         "action": "push",
         "target": {
            "mediaType": "application/vnd.docker.distribution.manifest.v2+json",
            "size": 528,
            "digest": "sha256:af06af3514c44a964d3b905b498cf6493db8f1cde7c10e078213a89c87308ba0",
            "length": 528,
            "repository": "root/test",
            "url": "http://registry.test:5000/v2/root/test/manifests/sha256:af06af3514c44a964d3b905b498cf6493db8f1cde7c10e078213a89c87308ba0",
            "tag": "more"
         },
         "request": {
            "id": "16d066a2-4c94-4569-9b14-00e05ba22aa7",
            "addr": "172.16.123.1:52803",
            "host": "registry.test:5000",
            "method": "PUT",
            "useragent": "docker/20.10.18 go/go1.18.6 git-commit/e42327a6d3c55ceda3bd5475be7aae6036d02db3 kernel/5.15.68-0-virt os/linux arch/arm64 UpstreamClient(Docker-Client/20.10.22 \\(darwin\\))"
         },
         "actor": {},
         "source": {
            "addr": "Jaimes-MBP:5000",
            "instanceID": "d65fd5c0-e824-4b83-8781-b1252f9af123"
         }
      }
   ]
}
